[57]HELLO! BOOT0 is starting!
[60]BOOT0 commit : 
[62]set pll start
[63]periph0 has been enabled
[66]set pll end
[68]board init ok
[70]DRAM only have internal ZQ!!
[72]get_pmu_exist() = -1
[75]ddr_efuse_type: 0x0
[78][AUTO DEBUG] two rank and full DQ!
[82]ddr_efuse_type: 0x0
[85][AUTO DEBUG] rank 0 row = 15 
[88][AUTO DEBUG] rank 0 bank = 8 
[91][AUTO DEBUG] rank 0 page size = 2 KB 
[94][AUTO DEBUG] rank 1 row = 15 
[98][AUTO DEBUG] rank 1 bank = 8 
[101][AUTO DEBUG] rank 1 page size = 2 KB 
[105]rank1 config same as rank0
[108]DRAM BOOT DRIVE INFO: V0.24
[111]DRAM CLK = 792 MHz
[113]DRAM Type = 3 (2:DDR2,3:DDR3)
[116]DRAMC ZQ value: 0x7b7bfb
[119]DRAM ODT value: 0x42.
[121]ddr_efuse_type: 0x0
[124]DRAM SIZE =1024 M
[128]DRAM simple test OK.
[130]dram size =1024
[132]card no is 0
[134]sdcard 0 line count 4
[137][mmc]: mmc driver ver 2021-04-2 16:45
[146][mmc]: Wrong media type 0x0
[149][mmc]: ***Try SD card 0***
[157][mmc]: HSSDR52/SDR25 4 bit
[160][mmc]: 50000000 Hz
[162][mmc]: 59392 MB
[164][mmc]: ***SD/MMC 0 init OK!!!***
[227]Loading boot-pkg Succeed(index=0).
[231]Entry_name        = opensbi
[234]Entry_name        = dtb
[236]Entry_name        = u-boot
[240]Jump to second Boot.

OpenSBI v0.9
Build time: 2021-12-02 01:52:45 +0800
Build compiler: gcc version 9.2.1 20190827 (Red Hat Cross 9.2.1-1) (GCC)
   ____                    _____ ____ _____
  / __ \                  / ____|  _ \_   _|
 | |  | |_ __   ___ _ __ | (___ | |_) || |
 | |  | | '_ \ / _ \ '_ \ \___ \|  _ < | |
 | |__| | |_) |  __/ | | |____) | |_) || |_
  \____/| .__/ \___|_| |_|_____/|____/_____|
        | |
        |_|

Platform Name             : Allwinner D1 NeZha
Platform Features         : medeleg
Platform HART Count       : 1
Platform IPI Device       : aclint-mswi
Platform Timer Device     : aclint-mtimer @ 24000000Hz
Platform Console Device   : uart8250
Platform HSM Device       : ---
Platform Reboot Device    : sunxi-wdt-reset
Platform Shutdown Device  : ---
Firmware Base             : 0x40000000
Firmware Size             : 280 KB
Runtime SBI Version       : 0.3

Domain0 Name              : root
Domain0 Boot HART         : 0
Domain0 HARTs             : 0*
Domain0 Region00          : 0x0000000014008000-0x000000001400bfff (I)
Domain0 Region01          : 0x0000000014000000-0x0000000014007fff (I)
Domain0 Region02          : 0x0000000040000000-0x000000004007ffff ()
Domain0 Region03          : 0x0000000000000000-0xffffffffffffffff (R,W,X)
Domain0 Next Address      : 0x000000004a000000
Domain0 Next Arg1         : 0x0000000044000000
Domain0 Next Mode         : S-mode
Domain0 SysReset          : yes

Boot HART ID              : 0
Boot HART Domain          : root
Boot HART ISA             : rv64imafdcvsux
Boot HART Features        : scounteren,mcounteren,mcountinhibit,time
Boot HART PMP Count       : 16
Boot HART PMP Granularity : 2048
Boot HART PMP Address Bits: 38
Boot HART MHPM Count      : 0
Boot HART MIDELEG         : 0x0000000000000222
Boot HART MEDELEG         : 0x000000000000b109


U-Boot 2022.01-rc2-Nezhe-D1 (Dec 02 2021 - 01:51:53 +0800)devel

CPU:   rv64imafdc
Model: Allwinner D1 NeZha
DRAM:  1 GiB
WDT:   Started watchdog@6011000 with servicing (16s timeout)
MMC:   mmc@4020000: 0, mmc@4021000: 1
Loading Environment from nowhere... OK
In:    serial@2500000
Out:   serial@2500000
Err:   serial@2500000
Net:   
Warning: ethernet@4500000 (eth0) using random MAC address - aa:53:ce:9d:ff:ba
eth0: ethernet@4500000
switch to partitions #0, OK
mmc0 is current device
** Invalid partition 1 **
Couldn't find partition mmc 0
Can't set block device
163 bytes read in 2 ms (79.1 KiB/s)
Importing environment from mmc0 ...
Autoboot in 2 seconds
[Nezha]# run boot_grub
4681728 bytes read in 808 ms (5.5 MiB/s)
Scanning disk mmc@4020000.blk...
Scanning disk mmc@4021000.blk...
Disk mmc@4021000.blk not ready
Found 4 disks
No EFI system partition
Booting /\EFI\fedora\grubriscv64.efi
Welcome to GRUB!

      [ grub.cfg  512B  100%  13.51B/s ]      [ grub.cfg  512B  100%  13.44B/s ]GNU GRUB  version 2.11

┌────────────────────────────────────────────────────────────────────────────────────────────────────────────────────────────────┐││││││││││││││││││││││││││││││││││││││││││││││││││││││││││││││││││││││││││││││││││││└────────────────────────────────────────────────────────────────────────────────────────────────────────────────────────────────┘     Use the ▲ and ▼ keys to select which entry is highlighted.                                                              
      Press enter to boot the selected OS, `e' to edit the commands before booting or `c' for a command-line.                  *Fedora on D1 5.16.0-rc2+                                                                                                                                                                                                                                                                                                                                                                                                                                                                                                                                                                                                                                                                                                                                                                                                                                                                                                                                                                                                                                                                                                                                                                                                                                                                                                                                                                                                                                                                                                                                                                                                                                                                                                                                                                                                                                                                                                                                                                                                                                                                                                                                                                                                                                                                                                                                                                                                                                                                                                                                                                                                                                                                                                                                                                                                                                                                                                                                                                                                                                                                                                                                                                                                                                                                                                                                                                                                                                                                                                                                                                                                                                                                                                                                                                                                                                                                                                                                                                                                                                                                                                                                                                                                                                                                                                                                                                                                                                                                                                                                                                                                                                                                                                                                                                                                                                                                                                                                                                                                                                                                                                                                                                                                                                                                                                                                                                                                                                                                                                                                                                           The highlighted entry will be executed automatically in 2s.                                                                        The highlighted entry will be executed automatically in 1s.                                                                        The highlighted entry will be executed automatically in 0s.                                                                     
  Booting `Fedora on D1 5.16.0-rc2+'

      [ vmlinuz-5.16.0-rc2+  3.75MiB  43%  2.34MiB/s ]      [ vmlinuz-5.16.0-rc2+  8.63MiB  100%  4.03MiB/s ]loader/efi/linux.c:75: UEFI stub kernel:
loader/efi/linux.c:76: PE/COFF header @ 00000040
loader/efi/linux.c:90: LoadFile2 initrd loading enabled
loader/efi/linux.c:439: kernel file size: 28204544
loader/efi/linux.c:441: kernel numpages: 6886
loader/efi/linux.c:458: kernel @ 0x6d1c8000
      [ sun20i-d1-nezha-1g.d  24.15KiB  100%  38.84B/s ]      [ initramfs-5.16.0-rc2  7.66MiB  26%  2.47MiB/s ]      [ initramfs-5.16.0-rc2  15.44MiB  53%  4.26MiB/s ]      [ initramfs-5.16.0-rc2  23.19MiB  80%  4.68MiB/s ]      [ initramfs-5.16.0-rc2  28.78MiB  100%  4.79MiB/s ]loader/efi/linux.c:377: LoadFile2 initrd loading protocol installed
loader/efi/fdt.c:63: allocating 25753 bytes for fdt
loader/efi/linux.c:177: linux command line: 'BOOT_IMAGE=/vmlinuz-5.16.0-rc2+ earlyprintk=sunxi-uart,0x02500000 clk_ignore_unused
initcall_debug=0 console=ttyS0,115200 console=tty0 root=UUID=688238f2-5820-4107-8a46-632a04f9cd5b cma=8M mac_addr=84:10:12:12:01:04
LANG=en_US.UTF-8'
loader/efi/linux.c:192: starting image 0x7faf3130
EFI stub: Booting Linux Kernel...
EFI stub: Using DTB from configuration table
loader/efi/linux.c:329: Providing initrd via LOAD_FILE2_PROTOCOL
EFI stub: Loaded initrd from LINUX_EFI_INITRD_MEDIA_GUID device path
EFI stub: Exiting boot services...
[    0.000000] Linux version 5.16.0-rc2+ (ocean@oepkgs-riscv-dev) (riscv64-linux-gnu-gcc (GCC) 11.2.1 20210728 (Red Hat Cross 11.2.1-1), GNU ld version 2.37-3.fc35) #2 PREEMPT Wed Nov 24 08:59:37 CST 2021
[    0.000000] OF: fdt: Ignoring memory range 0x40000000 - 0x40200000
[    0.000000] Machine model: Allwinner D1 NeZha
[    0.000000] efi: EFI v2.90 by Das U-Boot
[    0.000000] efi: RTPROP=0x7ea97040 SMBIOS=0x7ea93000 MEMRESERVE=0x69977040 
[    0.000000] OF: fdt: Ignoring memory block 0x40000000 - 0x40080000
[    0.000000] OF: fdt: Ignoring memory range 0x40080000 - 0x40200000
[    0.000000] Zone ranges:
[    0.000000]   DMA32    [mem 0x0000000040200000-0x000000007fffffff]
[    0.000000]   Normal   empty
[    0.000000] Movable zone start for each node
[    0.000000] Early memory node ranges
[    0.000000]   node   0: [mem 0x0000000040200000-0x000000007ea92fff]
[    0.000000]   node   0: [mem 0x000000007ea93000-0x000000007ea93fff]
[    0.000000]   node   0: [mem 0x000000007ea94000-0x000000007ea96fff]
[    0.000000]   node   0: [mem 0x000000007ea97000-0x000000007ea99fff]
[    0.000000]   node   0: [mem 0x000000007ea9a000-0x000000007ea9afff]
[    0.000000]   node   0: [mem 0x000000007ea9b000-0x000000007ea9efff]
[    0.000000]   node   0: [mem 0x000000007ea9f000-0x000000007fed3fff]
[    0.000000]   node   0: [mem 0x000000007fed4000-0x000000007fed4fff]
[    0.000000]   node   0: [mem 0x000000007fed5000-0x000000007fffffff]
[    0.000000] Initmem setup node 0 [mem 0x0000000040200000-0x000000007fffffff]
[    0.000000] On node 0, zone DMA32: 512 pages in unavailable ranges
[    0.000000] SBI specification v0.3 detected
[    0.000000] SBI implementation ID=0x1 Version=0x9
[    0.000000] SBI TIME extension detected
[    0.000000] SBI IPI extension detected
[    0.000000] SBI RFENCE extension detected
[    0.000000] SBI SRST extension detected
[    0.000000] riscv: ISA extensions acdfim
[    0.000000] riscv: ELF capabilities acdfim
[    0.000000] Built 1 zonelists, mobility grouping on.  Total pages: 257544
[    0.000000] Kernel command line: BOOT_IMAGE=/vmlinuz-5.16.0-rc2+ earlyprintk=sunxi-uart,0x02500000 clk_ignore_unused initcall_debug=0 console=ttyS0,115200 console=tty0 root=UUID=688238f2-5820-4107-8a46-632a04f9cd5b cma=8M mac_addr=84:10:12:12:01:04 LANG=en_US.UTF-8
[    0.000000] Unknown kernel command line parameters "BOOT_IMAGE=/vmlinuz-5.16.0-rc2+ earlyprintk=sunxi-uart,0x02500000 cma=8M mac_addr=84:10:12:12:01:04 LANG=en_US.UTF-8", will be passed to user space.
[    0.000000] Dentry cache hash table entries: 131072 (order: 8, 1048576 bytes, linear)
[    0.000000] Inode-cache hash table entries: 65536 (order: 7, 524288 bytes, linear)
[    0.000000] mem auto-init: stack:off, heap alloc:off, heap free:off
[    0.000000] Virtual kernel memory layout:
[    0.000000]       fixmap : 0xffffffcefee00000 - 0xffffffceff000000   (2048 kB)
[    0.000000]       pci io : 0xffffffceff000000 - 0xffffffcf00000000   (  16 MB)
[    0.000000]      vmemmap : 0xffffffcf00000000 - 0xffffffcfffffffff   (4095 MB)
[    0.000000]      vmalloc : 0xffffffd000000000 - 0xffffffdfffffffff   (65535 MB)
[    0.000000]       lowmem : 0xffffffe000000000 - 0xffffffe03fe00000   (1022 MB)
[    0.000000]       kernel : 0xffffffff80000000 - 0xffffffffffffffff   (2047 MB)
[    0.000000] Memory: 951668K/1046528K available (11626K kernel code, 6579K rwdata, 6144K rodata, 2532K init, 604K bss, 94860K reserved, 0K cma-reserved)
[    0.000000] random: get_random_u64 called from __kmem_cache_create+0x3e/0x466 with crng_init=0
[    0.000000] SLUB: HWalign=64, Order=0-3, MinObjects=0, CPUs=1, Nodes=1
[    0.000000] ftrace: allocating 44851 entries in 176 pages
[    0.000000] ftrace: allocated 176 pages with 3 groups
[    0.000000] trace event string verifier disabled
[    0.000000] rcu: Preemptible hierarchical RCU implementation.
[    0.000000] rcu: 	RCU event tracing is enabled.
[    0.000000] 	Trampoline variant of Tasks RCU enabled.
[    0.000000] 	Rude variant of Tasks RCU enabled.
[    0.000000] 	Tracing variant of Tasks RCU enabled.
[    0.000000] rcu: RCU calculated value of scheduler-enlistment delay is 25 jiffies.
[    0.000000] NR_IRQS: 64, nr_irqs: 64, preallocated irqs: 0
[    0.000000] OF: of_irq_init: found /cpus/cpu@0/interrupt-controller with parent (null)
[    0.000000] OF: of_irq_init: found /soc/interrupt-controller@6010000 with parent /soc/interrupt-controller@10000000
[    0.000000] OF: of_irq_init: found /soc/interrupt-controller@10000000 with parent /cpus/cpu@0/interrupt-controller
[    0.000000] OF: of_irq_init: init /cpus/cpu@0/interrupt-controller with parent (null)
[    0.000000] riscv-intc: 64 local interrupts mapped
[    0.000000] OF: of_irq_init: init /soc/interrupt-controller@10000000 with parent /cpus/cpu@0/interrupt-controller
[    0.000000] plic: interrupt-controller@10000000: mapped 176 interrupts with 1 handlers for 2 contexts.
[    0.000000] OF: of_irq_init: init /soc/interrupt-controller@6010000 with parent /soc/interrupt-controller@10000000
[    0.000000] riscv-sbi-ipi: registered IPI domain
[    0.000000] riscv_timer_init_dt: Registering clocksource cpuid [0] hartid [0]
[    0.000000] clocksource: riscv_clocksource: mask: 0xffffffffffffffff max_cycles: 0x588fe9dc0, max_idle_ns: 440795202592 ns
[    0.000000] sched_clock: 64 bits at 24MHz, resolution 41ns, wraps every 4398046511097ns
[    0.000449] clocksource: timer: mask: 0xffffffff max_cycles: 0xffffffff, max_idle_ns: 79635851949 ns
[    0.001040] Console: colour dummy device 80x25
[    0.002748] printk: console [tty0] enabled
[    0.002829] Calibrating delay loop (skipped), value calculated using timer frequency.. 48.00 BogoMIPS (lpj=96000)
[    0.002900] pid_max: default: 32768 minimum: 301
[    0.003148] LSM: Security Framework initializing
[    0.003270] Yama: becoming mindful.
[    0.003358] SELinux:  Initializing.
[    0.003682] Mount-cache hash table entries: 2048 (order: 2, 16384 bytes, linear)
[    0.003756] Mountpoint-cache hash table entries: 2048 (order: 2, 16384 bytes, linear)
[    0.007783] ASID allocator using 16 bits (65536 entries)
[    0.008108] rcu: Hierarchical SRCU implementation.
[    0.009228] Remapping and enabling EFI services.
[    0.010313] devtmpfs: initialized
[    0.023916] clocksource: jiffies: mask: 0xffffffff max_cycles: 0xffffffff, max_idle_ns: 7645041785100000 ns
[    0.023997] futex hash table entries: 256 (order: 0, 6144 bytes, linear)
[    0.024422] pinctrl core: initialized pinctrl subsystem
[    0.026285] NET: Registered PF_NETLINK/PF_ROUTE protocol family
[    0.029776] DMA: preallocated 128 KiB GFP_KERNEL pool for atomic allocations
[    0.029922] DMA: preallocated 128 KiB GFP_KERNEL|GFP_DMA32 pool for atomic allocations
[    0.030083] audit: initializing netlink subsys (disabled)
[    0.031376] thermal_sys: Registered thermal governor 'fair_share'
[    0.031393] thermal_sys: Registered thermal governor 'bang_bang'
[    0.031434] thermal_sys: Registered thermal governor 'step_wise'
[    0.031466] thermal_sys: Registered thermal governor 'user_space'
[    0.036563] audit: type=2000 audit(0.028:1): state=initialized audit_enabled=0 res=1
[    0.070348] platform 7090000.rtc: Fixing up cyclic dependency with 7010000.clock-controller
[    0.101023] HugeTLB registered 2.00 MiB page size, pre-allocated 0 pages
[    0.103000] raid6: skip pq benchmark and using algorithm int64x8
[    0.103051] raid6: using intx1 recovery algorithm
[    0.103463] fbcon: Taking over console
[    0.105748] iommu: Default domain type: Translated 
[    0.105797] iommu: DMA domain TLB invalidation policy: strict mode 
[    0.106121] vgaarb: loaded
[    0.107026] SCSI subsystem initialized
[    0.107763] usbcore: registered new interface driver usbfs
[    0.107935] usbcore: registered new interface driver hub
[    0.108059] usbcore: registered new device driver usb
[    0.108329] mc: Linux media interface: v0.10
[    0.108445] videodev: Linux video capture interface: v2.00
[    0.109406] Registered efivars operations
[    0.110233] Advanced Linux Sound Architecture Driver Initialized.
[    0.112638] clocksource: Switched to clocksource riscv_clocksource
[    0.360338] VFS: Disk quotas dquot_6.6.0
[    0.360464] VFS: Dquot-cache hash table entries: 512 (order 0, 4096 bytes)
[    0.403353] NET: Registered PF_INET protocol family
[    0.403662] IP idents hash table entries: 16384 (order: 5, 131072 bytes, linear)
[    0.408827] tcp_listen_portaddr_hash hash table entries: 512 (order: 1, 8192 bytes, linear)
[    0.408949] TCP established hash table entries: 8192 (order: 4, 65536 bytes, linear)
[    0.409100] TCP bind hash table entries: 8192 (order: 4, 65536 bytes, linear)
[    0.409207] TCP: Hash tables configured (established 8192 bind 8192)
[    0.409410] UDP hash table entries: 512 (order: 2, 16384 bytes, linear)
[    0.409518] UDP-Lite hash table entries: 512 (order: 2, 16384 bytes, linear)
[    0.409961] NET: Registered PF_UNIX/PF_LOCAL protocol family
[    0.417333] RPC: Registered named UNIX socket transport module.
[    0.417386] RPC: Registered udp transport module.
[    0.417413] RPC: Registered tcp transport module.
[    0.417441] RPC: Registered tcp NFSv4.1 backchannel transport module.
[    0.417480] NET: Registered PF_XDP protocol family
[    0.417527] PCI: CLS 0 bytes, default 64
[    0.419697] Trying to unpack rootfs image as initramfs...
[    1.016692] random: fast init done
[    2.613738] Initialise system trusted keyrings
[    2.613837] Key type blacklist registered
[    2.616870] workingset: timestamp_bits=46 max_order=18 bucket_order=0
[    2.640188] zbud: loaded
[    2.653660] NFS: Registering the id_resolver key type
[    2.653753] Key type id_resolver registered
[    2.653788] Key type id_legacy registered
[    2.654030] nfs4filelayout_init: NFSv4 File Layout Driver Registering...
[    2.654097] nfs4flexfilelayout_init: NFSv4 Flexfile Layout Driver Registering...
[    2.654513] SGI XFS with ACLs, security attributes, scrub, quota, no debug enabled
[    2.666903] NET: Registered PF_ALG protocol family
[    2.666968] xor: measuring software checksum speed
[    2.676748]    8regs           :  1630 MB/sec
[    2.692741]    8regs_prefetch  :  1627 MB/sec
[    2.700751]    32regs          :  1759 MB/sec
[    2.712699]    32regs_prefetch :  1756 MB/sec
[    2.712750] xor: using function: 32regs (1759 MB/sec)
[    2.712788] async_tx: api initialized (async)
[    2.712827] Key type asymmetric registered
[    2.712857] Asymmetric key parser 'x509' registered
[    2.713177] Block layer SCSI generic (bsg) driver version 0.4 loaded (major 246)
[    2.713550] io scheduler mq-deadline registered
[    2.713600] io scheduler kyber registered
[    2.713918] io scheduler bfq registered
[    2.725031] atomic64_test: passed
[    2.735060] switchtec: loaded.
[    2.812377] Serial: 8250/16550 driver, 6 ports, IRQ sharing disabled
[    2.822592] loop: module loaded
[    2.916993] Rounding down aligned max_sectors from 4294967295 to 4294967288
[    2.917410] db_root: cannot open: /etc/target
[    2.918598] ehci_hcd: USB 2.0 'Enhanced' Host Controller (EHCI) Driver
[    2.918690] ehci-pci: EHCI PCI platform driver
[    2.918837] ehci-platform: EHCI generic platform driver
[    2.919255] ohci_hcd: USB 1.1 'Open' Host Controller (OHCI) Driver
[    2.919370] ohci-pci: OHCI PCI platform driver
[    2.919520] ohci-platform: OHCI generic platform driver
[    2.920078] UDC core: couldn't find an available UDC - added [g_ether] to list of pending drivers
[    2.920551] mousedev: PS/2 mouse device common for all mice
[    2.925126] sun6i-rtc 7090000.rtc: registered as rtc0
[    2.925272] sun6i-rtc 7090000.rtc: setting system clock to 1970-01-02T00:00:34 UTC (86434)
[    2.925333] sun6i-rtc 7090000.rtc: RTC enabled
[    2.937131] sunxi-wdt 6011000.watchdog: Watchdog enabled (timeout=16 sec, nowayout=0)
[    2.937806] device-mapper: core: CONFIG_IMA_DISABLE_HTABLE is disabled. Duplicate IMA measurements will not be recorded in the IMA log.
[    2.938099] device-mapper: uevent: version 1.0.3
[    2.938752] device-mapper: ioctl: 4.45.0-ioctl (2021-03-22) initialised: dm-devel@redhat.com
[    2.944816] device-mapper: multipath round-robin: version 1.2.0 loaded
[    2.944870] device-mapper: multipath queue-length: version 0.2.0 loaded
[    2.944906] device-mapper: multipath service-time: version 0.3.0 loaded
[    2.945044] device-mapper: dm-log-userspace: version 1.3.0 loaded
[    2.945091] device-mapper: raid: Loading target version 1.15.1
[    2.945592] SPI driver mmc_spi has no spi_device_id for mmc-spi-slot
[    2.946978] ledtrig-cpu: registered to indicate activity on CPUs
[    2.947685] sun8i-ce 3040000.crypto: Set mod clock to 300000000 (300 Mhz) from 400000000 (400 Mhz)
[    2.948093] sun8i-ce 3040000.crypto: will run requests pump with realtime priority
[    2.948537] sun8i-ce 3040000.crypto: will run requests pump with realtime priority
[    2.952808] sun8i-ce 3040000.crypto: will run requests pump with realtime priority
[    2.953193] sun8i-ce 3040000.crypto: will run requests pump with realtime priority
[    2.953426] sun8i-ce 3040000.crypto: Register cbc(aes)
[    2.953507] sun8i-ce 3040000.crypto: Register ecb(aes)
[    2.953563] sun8i-ce 3040000.crypto: Register cbc(des3_ede)
[    2.953617] sun8i-ce 3040000.crypto: Register ecb(des3_ede)
[    2.953675] sun8i-ce 3040000.crypto: Register md5
[    2.953729] sun8i-ce 3040000.crypto: Register sha1
[    2.953785] sun8i-ce 3040000.crypto: Register sha224
[    2.953851] sun8i-ce 3040000.crypto: Register sha256
[    2.953915] sun8i-ce 3040000.crypto: Register sha384
[    2.953976] sun8i-ce 3040000.crypto: Register sha512
[    2.954035] sun8i-ce 3040000.crypto: Register stdrng
[    2.957197] sun8i-ce 3040000.crypto: CryptoEngine Die ID 0
[    2.957696] hid: raw HID events driver (C) Jiri Kosina
[    2.958098] usbcore: registered new interface driver usbhid
[    2.958145] usbhid: USB HID core driver
[    2.961514] random: crng init done
[    2.970572] sun20i-codec 2030000.audio-codec: ASoC: Adding component 2030000.audio-codec for platform /soc/audio-codec@2030000
[    2.970660] sun20i-codec 2030000.audio-codec: ASoC: Adding component 2030000.audio-codec for platform /soc/audio-codec@2030000
[    2.989050] Initializing XFRM netlink socket
[    2.990168] NET: Registered PF_INET6 protocol family
[    3.393500] Freeing initrd memory: 29472K
[    3.498622] Segment Routing with IPv6
[    3.498737] In-situ OAM (IOAM) with IPv6
[    3.498897] mip6: Mobile IPv6
[    3.499106] NET: Registered PF_PACKET protocol family
[    3.499238] bridge: filtering via arp/ip/ip6tables is no longer available by default. Update your scripts to load br_netfilter if you need this.
[    3.499733] Key type dns_resolver registered
[    3.500396] registered taskstats version 1
[    3.500546] Loading compiled-in X.509 certificates
[    3.724265] alg: No test for pkcs1pad(rsa,sha1) (pkcs1pad(rsa-generic,sha1))
[    3.729154] Loaded X.509 cert 'Build time autogenerated kernel key: 9647b8ec0fe72649935e77fc8d37c923d76e702e'
[    3.730058] zswap: loaded using pool lzo/zbud
[    3.730650] debug_vm_pgtable: [debug_vm_pgtable         ]: Validating architecture page table helpers
[    3.731040] Key type ._fscrypt registered
[    3.731086] Key type .fscrypt registered
[    3.731113] Key type fscrypt-provisioning registered
[    3.781195] Key type encrypted registered
[    3.781297] ima: No TPM chip found, activating TPM-bypass!
[    3.781361] Loading compiled-in module X.509 certificates
[    3.786313] Loaded X.509 cert 'Build time autogenerated kernel key: 9647b8ec0fe72649935e77fc8d37c923d76e702e'
[    3.786407] ima: Allocated hash algorithm: sha256
[    3.786513] ima: No architecture policies found
[    3.786900] alg: No test for stdrng (sun8i-ce-prng)
[    3.790314] sun8i-ce 3040000.crypto: Fallback for sha512-sun8i-ce is sha512-generic
[    3.864766] sun8i-ce 3040000.crypto: Fallback for sha384-sun8i-ce is sha384-generic
[    3.936964] sun8i-ce 3040000.crypto: Fallback for sha256-sun8i-ce is sha256-generic
[    4.011976] sun8i-ce 3040000.crypto: Fallback for sha224-sun8i-ce is sha224-generic
[    4.083788] sun8i-ce 3040000.crypto: Fallback for sha1-sun8i-ce is sha1-generic
[    4.156213] sun8i-ce 3040000.crypto: Fallback for md5-sun8i-ce is md5-generic
[    4.255882] sun8i-ce 3040000.crypto: Fallback for ecb-des3-sun8i-ce is ecb(des3_ede-generic)
[    4.287897] sun8i-ce 3040000.crypto: Fallback for cbc-des3-sun8i-ce is cbc(des3_ede-generic)
[    4.317908] sun8i-ce 3040000.crypto: Fallback for ecb-aes-sun8i-ce is ecb(aes-generic)
[    4.323047] sun8i-ce 3040000.crypto: Fallback for cbc-aes-sun8i-ce is cbc(aes-generic)
[    4.329683] alg: No test for 842 (842-scomp)
[    4.330053] alg: No test for 842 (842-generic)
[    5.127113] sun20i-d1-pinctrl 2000000.pinctrl: initialized sunXi PIO driver
[    5.130364] printk: console [ttyS0] disabled
[    5.150755] 2500000.serial: ttyS0 at MMIO 0x2500000 (irq = 89, base_baud = 1500000) is a 16550A
[    6.657573] printk: console [ttyS0] enabled
[    6.684007] 2500400.serial: ttyS1 at MMIO 0x2500400 (irq = 90, base_baud = 1500000) is a 16550A
[    6.695823] spi-nand spi0.0: Macronix SPI NAND was found.
[    6.701372] spi-nand spi0.0: 256 MiB, block size: 128 KiB, page size: 2048, OOB size: 64
[    6.710906] mtdblock: MTD device 'spi0.0' is NAND, please consider using UBI block devices instead.
[    6.771481] input: 2009800.keys as /devices/platform/soc/2009800.keys/input/input0
[    6.783708] pcf857x 1-0038: probed
[    6.797968] sunxi-mmc 4020000.mmc: Got CD GPIO
[    6.802848] acked 85 in 0x00000274, was 0x00200000, now 0x00000000
[    6.810324] phy phy-4100400.phy.0: Changing dr_mode to 1
[    6.815809] phy phy-4100400.phy.0: External vbus detected, not enabling our own vbus
[    6.823765] ehci-platform 4101000.usb: EHCI Host Controller
[    6.829542] ehci-platform 4101000.usb: new USB bus registered, assigned bus number 1
[    6.837890] ehci-platform 4101000.usb: irq 107, io mem 0x04101000
[    6.844206] sunxi-mmc 4020000.mmc: initialized, max. request size: 2047 KB, uses new timings mode
[    6.853169] acked 134 in 0x000002b4, was 0x00000040, now 0x00000000
[    6.872693] ehci-platform 4101000.usb: USB 2.0 started, EHCI 1.00
[    6.879403] usb usb1: New USB device found, idVendor=1d6b, idProduct=0002, bcdDevice= 5.16
[    6.887828] usb usb1: New USB device strings: Mfr=3, Product=2, SerialNumber=1
[    6.895196] usb usb1: Product: EHCI Host Controller
[    6.900263] usb usb1: Manufacturer: Linux 5.16.0-rc2+ ehci_hcd
[    6.906214] usb usb1: SerialNumber: 4101000.usb
[    6.911942] hub 1-0:1.0: USB hub found
[    6.916000] hub 1-0:1.0: 1 port detected
[    6.921942] ehci-platform 4200000.usb: EHCI Host Controller
[    6.927799] ehci-platform 4200000.usb: new USB bus registered, assigned bus number 2
[    6.935862] ehci-platform 4200000.usb: irq 109, io mem 0x04200000
[    6.956699] ehci-platform 4200000.usb: USB 2.0 started, EHCI 1.00
[    6.963691] usb usb2: New USB device found, idVendor=1d6b, idProduct=0002, bcdDevice= 5.16
[    6.972124] usb usb2: New USB device strings: Mfr=3, Product=2, SerialNumber=1
[    6.979498] usb usb2: Product: EHCI Host Controller
[    6.984505] mmc0: new high speed SDXC card at address 5048
[    6.990083] usb usb2: Manufacturer: Linux 5.16.0-rc2+ ehci_hcd
[    6.997202] mmcblk0: mmc0:5048 SD64G 58.0 GiB 
[    7.001786] usb usb2: SerialNumber: 4200000.usb
[    7.010498] hub 2-0:1.0: USB hub found
[    7.014602]  mmcblk0: p2 p3 p4
[    7.019365] hub 2-0:1.0: 1 port detected
[    7.064807] ohci-platform 4101400.usb: Generic Platform OHCI controller
[    7.071594] ohci-platform 4101400.usb: new USB bus registered, assigned bus number 3
[    7.079656] ohci-platform 4101400.usb: irq 108, io mem 0x04101400
[    7.149060] usb usb3: New USB device found, idVendor=1d6b, idProduct=0001, bcdDevice= 5.16
[    7.157427] usb usb3: New USB device strings: Mfr=3, Product=2, SerialNumber=1
[    7.164725] usb usb3: Product: Generic Platform OHCI controller
[    7.170713] usb usb3: Manufacturer: Linux 5.16.0-rc2+ ohci_hcd
[    7.176612] usb usb3: SerialNumber: 4101400.usb
[    7.182235] hub 3-0:1.0: USB hub found
[    7.186203] hub 3-0:1.0: 1 port detected
[    7.191711] ohci-platform 4200400.usb: Generic Platform OHCI controller
[    7.198718] ohci-platform 4200400.usb: new USB bus registered, assigned bus number 4
[    7.206834] ohci-platform 4200400.usb: irq 110, io mem 0x04200400
[    7.277057] usb usb4: New USB device found, idVendor=1d6b, idProduct=0001, bcdDevice= 5.16
[    7.285425] usb usb4: New USB device strings: Mfr=3, Product=2, SerialNumber=1
[    7.292801] usb usb4: Product: Generic Platform OHCI controller
[    7.298804] usb usb4: Manufacturer: Linux 5.16.0-rc2+ ohci_hcd
[    7.304704] usb usb4: SerialNumber: 4200400.usb
[    7.310352] hub 4-0:1.0: USB hub found
[    7.314319] hub 4-0:1.0: 1 port detected
[    7.322601] clk: Not disabling unused clocks
[    7.331144] ALSA device list:
[    7.334330]   #0: sun20i-codec
[    7.360049] Freeing unused kernel image (initmem) memory: 2532K
[    7.366197] Run /init as init process
[    7.504384] systemd[1]: System time before build time, advancing clock.
[    7.718654] systemd[1]: systemd v246.6-3.0.riscv64.fc33 running in system mode. (+PAM +AUDIT +SELINUX +IMA -APPARMOR +SMACK +SYSVINIT +UTMP +LIBCRYPTSETUP +GCRYPT +GNUTLS +ACL +XZ +LZ4 +ZSTD -SECCOMP +BLKID +ELFUTILS +KMOD +IDN2 -IDN +PCRE2 default-hierarchy=unified)
[    7.743077] systemd[1]: Detected architecture riscv64.
[    7.748448] systemd[1]: Running in initial RAM disk.
[    7.755805] systemd[1]: Set hostname to <fedora-riscv>.
[    9.006252] systemd[1]: /usr/lib/systemd/system/dracut-pre-udev.service:27: Standard output type syslog is obsolete, automatically updating to journal. Please update your unit file, and consider removing the setting altogether.
[    9.026796] systemd[1]: /usr/lib/systemd/system/dracut-pre-udev.service:28: Standard output type syslog+console is obsolete, automatically updating to journal+console. Please update your unit file, and consider removing the setting altogether.
[    9.153971] systemd[1]: /usr/lib/systemd/system/plymouth-start.service:15: Unit configured to use KillMode=none. This is unsafe, as it disables systemd's process lifecycle management for the service. Please update your service to use a safer KillMode=, such as 'mixed' or 'control-group'. Support for KillMode=none is deprecated and will eventually be removed.
[    9.231262] systemd[1]: /usr/lib/systemd/system/dracut-pre-trigger.service:23: Standard output type syslog is obsolete, automatically updating to journal. Please update your unit file, and consider removing the setting altogether.
[    9.252090] systemd[1]: /usr/lib/systemd/system/dracut-pre-trigger.service:24: Standard output type syslog+console is obsolete, automatically updating to journal+console. Please update your unit file, and consider removing the setting altogether.
[    9.278860] systemd[1]: /usr/lib/systemd/system/dracut-pre-pivot.service:30: Standard output type syslog is obsolete, automatically updating to journal. Please update your unit file, and consider removing the setting altogether.
[    9.299492] systemd[1]: /usr/lib/systemd/system/dracut-pre-pivot.service:31: Standard output type syslog+console is obsolete, automatically updating to journal+console. Please update your unit file, and consider removing the setting altogether.
[    9.340897] systemd[1]: /usr/lib/systemd/system/dracut-pre-mount.service:22: Standard output type syslog is obsolete, automatically updating to journal. Please update your unit file, and consider removing the setting altogether.
[    9.361492] systemd[1]: /usr/lib/systemd/system/dracut-pre-mount.service:23: Standard output type syslog+console is obsolete, automatically updating to journal+console. Please update your unit file, and consider removing the setting altogether.
[    9.387266] systemd[1]: /usr/lib/systemd/system/dracut-mount.service:22: Standard output type syslog is obsolete, automatically updating to journal. Please update your unit file, and consider removing the setting altogether.
[    9.407478] systemd[1]: /usr/lib/systemd/system/dracut-mount.service:23: Standard output type syslog+console is obsolete, automatically updating to journal+console. Please update your unit file, and consider removing the setting altogether.
[    9.432306] systemd[1]: /usr/lib/systemd/system/dracut-initqueue.service:24: Standard output type syslog is obsolete, automatically updating to journal. Please update your unit file, and consider removing the setting altogether.
[    9.452867] systemd[1]: /usr/lib/systemd/system/dracut-initqueue.service:25: Standard output type syslog+console is obsolete, automatically updating to journal+console. Please update your unit file, and consider removing the setting altogether.
[    9.478091] systemd[1]: /usr/lib/systemd/system/dracut-cmdline.service:26: Standard output type syslog is obsolete, automatically updating to journal. Please update your unit file, and consider removing the setting altogether.
[    9.498470] systemd[1]: /usr/lib/systemd/system/dracut-cmdline.service:27: Standard output type syslog+console is obsolete, automatically updating to journal+console. Please update your unit file, and consider removing the setting altogether.
[    9.566044] systemd[1]: Queued start job for default target Initrd Default Target.
[    9.575458] systemd[1]: Reached target Local File Systems.
[    9.582418] systemd[1]: Reached target Slices.
[    9.587764] systemd[1]: Reached target Swap.
[    9.593023] systemd[1]: Reached target Timers.
[    9.599948] systemd[1]: Listening on Journal Audit Socket.
[    9.607617] systemd[1]: Listening on Journal Socket (/dev/log).
[    9.615949] systemd[1]: Listening on Journal Socket.
[    9.623532] systemd[1]: Listening on udev Control Socket.
[    9.630953] systemd[1]: Listening on udev Kernel Socket.
[    9.637321] systemd[1]: Reached target Sockets.
[    9.659502] systemd[1]: Starting Create list of static device nodes for the current kernel...
[    9.706035] systemd[1]: Starting Load Kernel Modules...
[    9.745481] systemd[1]: Starting Setup Virtual Console...
[    9.801511] systemd[1]: Finished Create list of static device nodes for the current kernel.
[    9.866017] systemd[1]: Starting Create Static Device Nodes in /dev...
[   10.321080] systemd[1]: Finished Create Static Device Nodes in /dev.
[   10.389874] systemd[1]: Started Entropy Daemon based on the HAVEGE algorithm.
[   10.494455] systemd[1]: Starting Journal Service...
[   10.603166] i2c_dev: i2c /dev entries driver
[   10.664999] systemd[1]: Finished Load Kernel Modules.
[   10.738005] systemd[1]: Starting Apply Kernel Variables...
[   11.345062] systemd[1]: Finished Apply Kernel Variables.
[   11.365423] audit: type=1130 audit(1607040003.860:2): pid=1 uid=0 auid=4294967295 ses=4294967295 subj=kernel msg='unit=systemd-sysctl comm="systemd" exe="/usr/lib/systemd/systemd" hostname=? addr=? terminal=? res=success'
[   12.061056] systemd[1]: Finished Setup Virtual Console.
[   12.077578] audit: type=1130 audit(1607040004.572:3): pid=1 uid=0 auid=4294967295 ses=4294967295 subj=kernel msg='unit=systemd-vconsole-setup comm="systemd" exe="/usr/lib/systemd/systemd" hostname=? addr=? terminal=? res=success'
[   12.099698] systemd[1]: Started Journal Service.
[   12.156898] audit: type=1130 audit(1607040004.612:4): pid=1 uid=0 auid=4294967295 ses=4294967295 subj=kernel msg='unit=systemd-journald comm="systemd" exe="/usr/lib/systemd/systemd" hostname=? addr=? terminal=? res=success'
[   12.229313] audit: type=1334 audit(1607040004.712:5): prog-id=7 op=LOAD
[   12.269191] audit: type=1334 audit(1607040004.712:6): prog-id=8 op=LOAD
[   12.297233] audit: type=1334 audit(1607040004.712:7): prog-id=9 op=LOAD
[   12.815678] audit: type=1130 audit(1607040005.308:8): pid=1 uid=0 auid=4294967295 ses=4294967295 subj=kernel msg='unit=systemd-tmpfiles-setup comm="systemd" exe="/usr/lib/systemd/systemd" hostname=? addr=? terminal=? res=success'
[   12.885538] audit: type=1130 audit(1607040005.364:9): pid=1 uid=0 auid=4294967295 ses=4294967295 subj=kernel msg='unit=systemd-udevd comm="systemd" exe="/usr/lib/systemd/systemd" hostname=? addr=? terminal=? res=success'
[   17.976378] audit: type=1130 audit(1607040010.468:10): pid=1 uid=0 auid=4294967295 ses=4294967295 subj=kernel msg='unit=systemd-udev-trigger comm="systemd" exe="/usr/lib/systemd/systemd" hostname=? addr=? terminal=? res=success'
[   18.923653] sunxi-mmc 4021000.mmc: allocated mmc-pwrseq
[   18.992777] sunxi-mmc 4021000.mmc: initialized, max. request size: 2047 KB, uses new timings mode
[   19.030766] mmc1: new high speed SDIO card at address 0001
[  OK  ] Found device /dev/disk/by-…2-5820-4107-8a46-632a04f9cd5b.
[  OK     19.370077] audit: type=1130 audit(1607040011.864:11): pid=1 uid=0 auid=4294967295 ses=4294967295 subj=kernel msg='unit=plymouth-start comm="systemd" exe="/usr/lib/systemd/systemd" hostname=? addr=? terminal=? res=success'
0m] Started Show Plymouth Boot Screen.
[   20.026168] musb-hdrc musb-hdrc.2.auto: MUSB HDRC host driver
[   20.048851] musb-hdrc musb-hdrc.2.auto: new USB bus registered, assigned bus number 5
[   20.077189] usb usb5: New USB device found, idVendor=1d6b, idProduct=0002, bcdDevice= 5.16
[   20.104792] usb usb5: New USB device strings: Mfr=3, Product=2, SerialNumber=1
[   20.128759] usb usb5: Product: MUSB HDRC host driver
[   20.144790] usb usb5: Manufacturer: Linux 5.16.0-rc2+ musb-hcd
[   20.160906] usb usb5: SerialNumber: musb-hdrc.2.auto
[   20.181851] hub 5-0:1.0: USB hub found
[   20.192843] hub 5-0:1.0: 1 port detected
[   20.219355] using random self ethernet address
[   20.232721] using random host ethernet address
[   20.250854] usb0: HOST MAC 1e:9c:f8:23:75:1c
[   20.264922] usb0: MAC 4e:b0:9b:af:f2:42
[   20.276784] g_ether gadget: Ethernet Gadget, version: Memorial Day 2008
[   20.300765] g_ether gadget: g_ether ready
[  OK  ] Started Forward Password R…s to Plymouth Directory Watch.
[  OK  ] Reached target Initrd Root Device.
[  OK  ] Reached target Paths.
[  OK  ] Reached target Basic System.
         Starting File System Check…5820-4107-8a46-632a04f9cd5b...
[  OK  ] Finished    21.296285] audit: type=1130 audit(1607040013.788:12): pid=1 uid=0 auid=4294967295 ses=4294967295 subj=kernel msg='unit=systemd-fsck-root comm="systemd" exe="/usr/lib/systemd/systemd" hostname=? addr=? terminal=? res=success'
;1;39mFile System Check…2-5820-4107-8a46-632a04f9cd5b.
         Mounting /sysroot...
[   21.490247] EXT4-fs (mmcblk0p4): mounted filesystem with ordered data mode. Opts: (null). Quota mode: none.
[  OK  ] Mounted /sysroot.
[  OK  ] Reached target Initrd Root File System.
         Starting Reload Configuration from the Real Root...
[   21.815598] audit: type=1334 audit(1607040014.308:13): prog-id=0 op=UNLOAD
[   21.852490] audit: type=1334 audit(1607040014.344:14): prog-id=0 op=UNLOAD
[   21.867718] audit: type=1334 audit(1607040014.352:15): prog-id=0 op=UNLOAD
[   21.888002] audit: type=1334 audit(1607040014.352:16): prog-id=0 op=UNLOAD
[   21.913979] audit: type=1334 audit(1607040014.408:17): prog-id=0 op=UNLOAD
[   21.929331] audit: type=1334 audit(1607040014.416:18): prog-id=0 op=UNLOAD
[   21.947541] audit: type=1334 audit(1607040014.416:19): prog-id=0 op=UNLOAD
[   24.067571] audit: type=1334 audit(1607040016.560:20): prog-id=10 op=LOAD
[   24.081214] audit: type=1334 audit(1607040016.568:21): prog-id=11 op=LOAD
[   24.097289] audit: type=1334 audit(1607040016.568:22): prog-id=12 op=LOAD
[   24.155817] audit: type=1334 audit(1607040016.648:23): prog-id=13 op=LOAD
[   24.169225] audit: type=1334 audit(1607040016.656:24): prog-id=14 op=LOAD
[   24.183526] audit: type=1334 audit(1607040016.660:25): prog-id=15 op=LOAD
[   24.213442] audit: type=1334 audit(1607040016.708:26): prog-id=16 op=LOAD
[  OK     24.659931] audit: type=1130 audit(1607040017.152:27): pid=1 uid=0 auid=4294967295 ses=4294967295 subj=kernel msg='unit=initrd-parse-etc comm="systemd" exe="/usr/lib/systemd/systemd" hostname=? addr=? terminal=? res=success'
0m] Finished Reload Configuration from the Real Root.
[  OK  ] Reached target Initrd File Systems.
[  OK  ] Reached target Initrd Default Target.
         Starting Cleaning Up and Shutt[   24.709377] audit: type=1131 audit(1607040017.176:28): pid=1 uid=0 auid=4294967295 ses=4294967295 subj=kernel msg='unit=initrd-parse-etc comm="systemd" exe="/usr/lib/systemd/systemd" hostname=? addr=? terminal=? res=success'
ing Down Daemons...
[  OK     24.952883] audit: type=1130 audit(1607040017.448:29): pid=1 uid=0 auid=4294967295 ses=4294967295 subj=kernel msg='unit=initrd-cleanup comm="systemd" exe="/usr/lib/systemd/systemd" hostname=? addr=? terminal=? res=success'
0m] Finished Cleaning Up and Shutting Down Daemons.
[  OK  ] Stopped target Initrd Default Target.
[  OK  ] Stopped target Basic System.
[  OK  ] Stopped target Initrd Root Device.
[  OK  ] Stopped target Paths.
[  OK  ] Stopped target Remote File Systems.
[  OK  ] Stopped target Remote File Systems (Pre).
[  OK  ] Stopped target Slices.
[  OK  ] Stopped target Sockets.
[  OK  ] Stopped target System Initialization.
[  OK  ] Stopped target Swap.
[  OK  ] Stopped target Timers.
         Starting Tell haveged about new root...
         Starting Plymouth switch root service...
[  OK  ] Stopped Apply Kernel Variables.
[  OK  ] Stopped Load Kernel Modules.
[  OK  ] Stopped Create Volatile Files and Directories.
[  OK  ] Stopped target Local File Systems.
[  OK  ] Stopped Coldplug All udev Devices.
         Stopping Rule-based Manage…for Device Events and Files...
[  OK  ] Finished Tell haveged about new root.
[  OK  ] Stopped Rule-based Manager for Device Events and Files.
[  OK  ] Closed udev Control Socket.
[  OK  ] Closed udev Kernel Socket.
         Starting Cleanup udev Database...
[  OK  ] Stopped Create Static Device Nodes in /dev.
[  OK  ] Stopped Create list of sta… nodes for the current kernel.
[  OK  ] Finished Plymouth switch root service.
[  OK  ] Finished Cleanup udev Database.
[  OK  ] Reached target Switch Root.
         Starting Switch Root...
[   27.550461] SELinux:  Runtime disable is deprecated, use selinux=0 on the kernel cmdline.
[   27.558853] SELinux:  Disabled at runtime.
[   27.692792] systemd[1]: systemd v246.6-3.0.riscv64.fc33 running in system mode. (+PAM +AUDIT +SELINUX +IMA -APPARMOR +SMACK +SYSVINIT +UTMP +LIBCRYPTSETUP +GCRYPT +GNUTLS +ACL +XZ +LZ4 +ZSTD -SECCOMP +BLKID +ELFUTILS +KMOD +IDN2 -IDN +PCRE2 default-hierarchy=unified)
[   27.717728] systemd[1]: Detected architecture riscv64.

Welcome to Fedora 33 (Raw[   27.737998] systemd[1]: Set hostname to <linux-riscv64>.
hide)!

[   30.212078] zram_generator::generator[302]: Creating dev-zram0.swap for /dev/zram0 (480MB)
[   30.888487] zram: Added device: zram0
[   31.520055] systemd[1]: /usr/lib/dracut/modules.d/98dracut-systemd/dracut-pre-udev.service:27: Standard output type syslog is obsolete, automatically updating to journal. Please update your unit file, and consider removing the setting altogether.
[   31.542284] systemd[1]: /usr/lib/dracut/modules.d/98dracut-systemd/dracut-pre-udev.service:28: Standard output type syslog+console is obsolete, automatically updating to journal+console. Please update your unit file, and consider removing the setting altogether.
[   31.570882] systemd[1]: /usr/lib/dracut/modules.d/98dracut-systemd/dracut-pre-trigger.service:23: Standard output type syslog is obsolete, automatically updating to journal. Please update your unit file, and consider removing the setting altogether.
[   31.593264] systemd[1]: /usr/lib/dracut/modules.d/98dracut-systemd/dracut-pre-trigger.service:24: Standard output type syslog+console is obsolete, automatically updating to journal+console. Please update your unit file, and consider removing the setting altogether.
[   31.628911] systemd[1]: /usr/lib/dracut/modules.d/98dracut-systemd/dracut-pre-pivot.service:30: Standard output type syslog is obsolete, automatically updating to journal. Please update your unit file, and consider removing the setting altogether.
[   31.651115] systemd[1]: /usr/lib/dracut/modules.d/98dracut-systemd/dracut-pre-pivot.service:31: Standard output type syslog+console is obsolete, automatically updating to journal+console. Please update your unit file, and consider removing the setting altogether.
[   31.696245] systemd[1]: /usr/lib/systemd/system/gssproxy.service:13: PIDFile= references a path below legacy directory /var/run/, updating /var/run/gssproxy.pid → /run/gssproxy.pid; please update the unit file accordingly.
[   31.848061] systemd[1]: /usr/lib/dracut/modules.d/98dracut-systemd/dracut-pre-mount.service:22: Standard output type syslog is obsolete, automatically updating to journal. Please update your unit file, and consider removing the setting altogether.
[   31.870305] systemd[1]: /usr/lib/dracut/modules.d/98dracut-systemd/dracut-pre-mount.service:23: Standard output type syslog+console is obsolete, automatically updating to journal+console. Please update your unit file, and consider removing the setting altogether.
[   31.900797] systemd[1]: /usr/lib/dracut/modules.d/98dracut-systemd/dracut-mount.service:22: Standard output type syslog is obsolete, automatically updating to journal. Please update your unit file, and consider removing the setting altogether.
[   31.922652] systemd[1]: /usr/lib/dracut/modules.d/98dracut-systemd/dracut-mount.service:23: Standard output type syslog+console is obsolete, automatically updating to journal+console. Please update your unit file, and consider removing the setting altogether.
[   31.950089] systemd[1]: /usr/lib/dracut/modules.d/98dracut-systemd/dracut-initqueue.service:24: Standard output type syslog is obsolete, automatically updating to journal. Please update your unit file, and consider removing the setting altogether.
[   31.972292] systemd[1]: /usr/lib/dracut/modules.d/98dracut-systemd/dracut-initqueue.service:25: Standard output type syslog+console is obsolete, automatically updating to journal+console. Please update your unit file, and consider removing the setting altogether.
[   32.000094] systemd[1]: /usr/lib/dracut/modules.d/98dracut-systemd/dracut-cmdline.service:26: Standard output type syslog is obsolete, automatically updating to journal. Please update your unit file, and consider removing the setting altogether.
[   32.022170] systemd[1]: /usr/lib/dracut/modules.d/98dracut-systemd/dracut-cmdline.service:27: Standard output type syslog+console is obsolete, automatically updating to journal+console. Please update your unit file, and consider removing the setting altogether.
[   32.336841] systemd[1]: /usr/lib/systemd/system/ip6tables.service:14: Standard output type syslog is obsolete, automatically updating to journal. Please update your unit file, and consider removing the setting altogether.
[   32.356846] systemd[1]: /usr/lib/systemd/system/ip6tables.service:15: Standard output type syslog is obsolete, automatically updating to journal. Please update your unit file, and consider removing the setting altogether.
[   32.379855] systemd[1]: /usr/lib/systemd/system/iptables.service:14: Standard output type syslog is obsolete, automatically updating to journal. Please update your unit file, and consider removing the setting altogether.
[   32.399703] systemd[1]: /usr/lib/systemd/system/iptables.service:15: Standard output type syslog is obsolete, automatically updating to journal. Please update your unit file, and consider removing the setting altogether.
[   33.096616] systemd[1]: /usr/lib/systemd/system/alsa-restore.service:15: Standard output type syslog is obsolete, automatically updating to journal. Please update your unit file, and consider removing the setting altogether.
[   33.347149] kauditd_printk_skb: 25 callbacks suppressed
[   33.347165] audit: type=1334 audit(1607040025.840:55): prog-id=19 op=LOAD
[   33.368815] audit: type=1334 audit(1607040025.856:56): prog-id=20 op=LOAD
[   33.384800] audit: type=1334 audit(1607040025.856:57): prog-id=21 op=LOAD
[   33.400807] audit: type=1334 audit(1607040025.888:58): prog-id=22 op=LOAD
[   33.411919] audit: type=1131 audit(1607040025.904:59): pid=1 uid=0 auid=4294967295 ses=4294967295 msg='unit=systemd-journald comm="systemd" exe="/usr/lib/systemd/systemd" hostname=? addr=? terminal=? res=success'
[   33.435145] systemd[1]: initrd-switch-root.service: Succeeded.
[   33.446096] systemd[1]: Stopped Switch Root.
[  OK  ] Stopped    33.452927] audit: type=1334 audit(1607040025.936:60): prog-id=0 op=UNLOAD
1;39mSwitch Root.
[   33.464071] systemd[1]: systemd-journald.service: Scheduled restart job, restart counter is at 1.
[   33.473232] audit: type=1130 audit(1607040025.944:61): pid=1 uid=0 auid=4294967295 ses=4294967295 msg='unit=initrd-switch-root comm="systemd" exe="/usr/lib/systemd/systemd" hostname=? addr=? terminal=? res=success'
[   33.496837] systemd[1]: Created slice system-getty.slice.
[  OK  ] Created slice system-getty.slice   33.507580] systemd[1]: Created slice system-modprobe.slice.
m.
[   33.514338] audit: type=1131 audit(1607040025.944:62): pid=1 uid=0 auid=4294967295 ses=4294967295 msg='unit=initrd-switch-root comm="systemd" exe="/usr/lib/systemd/systemd" hostname=? addr=? terminal=? res=success'
[  OK  ] Created slice system-modprobe.slice[   33.538921] systemd[1]: Created slice system-serial\x2dgetty.slice.
.
[  OK  ] Created slice system-serial\x2dgett[   33.551351] systemd[1]: Created slice system-sshd\x2dkeygen.slice.
y.slice.
[  OK  ] Created slice syste[   33.563732] systemd[1]: Created slice system-swap\x2dcreate.slice.
m-sshd\x2dkeygen.slice.
[  OK  ] Created slice [   33.574896] systemd[1]: Created slice User and Session Slice.
system-[   33.582730] systemd[1]: Condition check resulted in Dispatch Password Requests to Console Directory Watch being skipped.
swap\x2dcreate.s[   33.594756] systemd[1]: Started Forward Password Requests to Wall Directory Watch.
lice.
[  OK  ] Created slice User and [   33.608035] systemd[1]: Set up automount Arbitrary Executable File Formats File System Automount Point.
Session Slice.
[  O[   33.619045] systemd[1]: Reached target Local Encrypted Volumes.
K  ] Started Forwar[   33.627698] systemd[1]: Stopped target Switch Root.
d Password R…uests to Wall Dir[   33.635449] systemd[1]: Stopped target Initrd File Systems.
ectory Watch[   33.643415] systemd[1]: Stopped target Initrd Root File System.
.
[  OK  ] Set up a[   33.651296] systemd[1]: Reached target Paths.
utomount Arbitrary…s [   33.658152] systemd[1]: Reached target Slices.
File System Automount Point.[   33.666355] systemd[1]: Listening on Device-mapper event daemon FIFOs.

[  OK  ] Reached t[   33.675694] systemd[1]: Listening on LVM2 poll daemon socket.
arget Local Encrypted V[   33.683897] systemd[1]: Listening on multipathd control socket.
olumes.
[  OK  ] Stopped target Switch Root.
[  OK  ] Stopped target Initrd File Systems.
[  OK  ] Stopped target [   33.706472] systemd[1]: Listening on Process Core Dump Socket.
Initrd Root File System.
[[   33.714915] systemd[1]: Listening on initctl Compatibility Named Pipe.
  OK  ] Reached target Paths[   33.725247] systemd[1]: Listening on udev Control Socket.
.
[  OK  ] Reac[   33.734420] systemd[1]: Listening on udev Kernel Socket.
hed target Slices.[   33.742525] systemd[1]: Listening on User Database Manager Socket.

[  OK  ] Listening on Device-mapper event daemon FIFOs.
[  OK  ] Listening on LVM2 poll daemon socket.
[   33.762375] systemd[1]: Mounting Huge Pages File System...
0;32m  OK  ] Listening on multipathd control socket.
[  OK  ] Listening on Process Core Dump Socket.
[  OK  ] Listening on initctl Compatibility Named Pipe.
[  OK  ] Listening on udev Control Socket.
[  OK  ] Listening on udev Kernel Socket.
[  OK  ] Listening on User Database Manager Soc[   33.805406] systemd[1]: Mounting POSIX Message Queue File System...
ket.
         Mounting Huge Pages File System...
         Mounting POSIX Message Queue File System...
[   33.857765] systemd[1]: Mounting Kernel Debug File System...
         Mounting Kernel Debug File System...
[   33.906086] systemd[1]: Mounting Kernel Trace File System...
         Mounting Kerne[   33.927561] systemd[1]: Condition check resulted in Kernel Module supporting RPCSEC_GSS being skipped.
l Trace File System...
[   33.975419] systemd[1]: Starting Create list of static device nodes for the current kernel...
         Starting Create list of st…odes for the current kernel...
[   34.021738] systemd[1]: Starting Monitoring of LVM2 mirrors, snapshots etc. using dmeventd or progress polling...
         Starting Monitoring of LVM…meventd or progress polling...
[   34.077036] systemd[1]: Starting Load Kernel Module drm...
         Starting Load Kernel Module drm...
[   34.134085] systemd[1]: Starting Preprocess NFS configuration convertion...
         Starting Preprocess NFS configuration convertion...
[   34.178409] systemd[1]: plymouth-switch-root.service: Succeeded.
[   34.221082] systemd[1]: Stopped Plymouth switch root service.
[  OK  ] Stopped Plymouth switch root servic[   34.241424] audit: type=1131 audit(1607040026.736:63): pid=1 uid=0 auid=4294967295 ses=4294967295 msg='unit=plymouth-switch-root comm="systemd" exe="/usr/lib/systemd/systemd" hostname=? addr=? terminal=? res=success'
e.
[   34.283629] systemd[1]: Condition check resulted in Set Up Additional Binary Formats being skipped.
[   34.302481] systemd[1]: systemd-fsck-root.service: Succeeded.
[   34.321690] systemd[1]: Stopped File System Check on Root Device.
[  OK  ] Stopped File System Check on Root D[   34.337381] audit: type=1131 audit(1607040026.832:64): pid=1 uid=0 auid=4294967295 ses=4294967295 msg='unit=systemd-fsck-root comm="systemd" exe="/usr/lib/systemd/systemd" hostname=? addr=? terminal=? res=success'
evice.
[   34.358719] systemd[1]: Stopped Journal Service.
[  OK  ] Stopped Journal Service.
[   34.406461] systemd[1]: Starting Journal Service...
         Starting Journal Service...
[   34.474169] systemd[1]: Starting Load Kernel Modules...
         Starting Load Kernel Modules...
[   34.550187] systemd[1]: Starting Remount Root and Kernel File Systems...
         Starting Remou[   34.590840] systemd[1]: Condition check resulted in Repartition Root Disk being skipped.
nt Root and Kernel File Systems...
[   34.678117] systemd[1]: Starting Coldplug All udev Devices...
         Starting Coldplug All udev Devices...
[   34.771483] systemd[1]: sysroot.mount: Succeeded.
[   34.870949] systemd[1]: Mounted Huge Pages File System.
[  OK  ] Mounted Huge Pages File System.
[   34.917335] systemd[1]: Mounted POSIX Message Queue File System.
[  OK  ] Mounted POSIX Messa[   34.960492] systemd[1]: Mounted Kernel Debug File System.
ge Queue File System.
[  OK  ] Mounted Kernel Debu[   35.004444] systemd[1]: Mounted Kernel Trace File System.
g File System.
[  OK  ] Mounted Kernel Trace File System.
[   35.077062] systemd[1]: Finished Create list of static device nodes for the current kernel.
[  OK  ] Finished Create list of st… nodes for the current kernel.
[   35.156873] systemd[1]: modprobe@drm.service: Succeeded.
[   35.201231] systemd[1]: Finished Load Kernel Module drm.
[  OK  ] Finished Load Kernel Module drm.
[   35.240227] systemd[1]: nfs-convert.service: Succeeded.
[   35.297100] systemd[1]: Finished Preprocess NFS configuration convertion.
[  OK  ] Finished Preprocess NFS configuration convertion.
[   35.353275] systemd[1]: Finished Load Kernel Modules.
[  OK  ] Finished Load Kernel Modules.
[   35.384406] systemd[1]: Started Journal Service.
[   35.389268] EXT4-fs (mmcblk0p4): re-mounted. Opts: (null). Quota mode: none.
[  OK  ] Started Journal Service.
[  OK  ] Finished Remount Root and Kernel File Systems.
         Starting Flush Journal to Persistent Storage...
         Starting Load/Save Random Seed...
         Starting Apply Kernel Variables...
         Starting Create Static Device Nodes in /dev...
[  OK  ] Finished Load/Save Random Seed.
[  OK  ] Finished Apply Kernel Variables.
[  OK  ] Finished Create Static Device Nodes in /dev.
         Starting Rule-based Manage…for Device Events and Files...
[  OK  ] Finished Flush Journal to Persistent Storage.
[   37.856816] ldob: disabling
[   37.859661] hpldo: disabling
[   37.876351] usbvbus: disabling
[  OK  ] Started Rule-based Manager for Device Events and Files.
[   42.083088] sun50i-r329-ledc 2008000.led-controller: Registered 1 LEDs
[  OK     42.101968] kauditd_printk_skb: 26 callbacks suppressed
0m] Finished    42.101984] audit: type=1130 audit(1607040034.596:89): pid=1 uid=0 auid=4294967295 ses=4294967295 msg='unit=systemd-udev-trigger comm="systemd" exe="/usr/lib/systemd/systemd" hostname=? addr=? terminal=? res=success'
;1;39mColdplug All udev Devices.
         Starting Wait for udev To …plete Device Initialization...
[  OK  ] Reached target Hardware activated USB gadget.
[  OK  ] Finished Monitoring of LVM… dmeventd or progress polling.
[   44.565551] audit: type=1130 audit(1607040037.060:90): pid=1 uid=0 auid=4294967295 ses=4294967295 msg='unit=lvm2-monitor comm="systemd" exe="/usr/lib/systemd/systemd" hostname=? addr=? terminal=? res=success'
[  OK  ] Found device /dev/zram0.
         Starting Create swap on /dev/zram0...
[   45.627227] zram0: detected capacity change from 0 to 983040
[   45.839638] pps_core: LinuxPPS API ver. 1 registered
[   45.920860] pps_core: Software ver. 5.3.6 - Copyright 2005-2007 Rodolfo Giometti <giometti@linux.it>
[  OK  ] Listening on Load/Save RF …itch Status /dev/rfkill Watch.
[  OK  ] Finished    47.830304] audit: type=1130 audit(1607040040.324:91): pid=1 uid=0 auid=4294967295 ses=4294967295 msg='unit=swap-create@zram0 comm="systemd" exe="/usr/lib/systemd/systemd" hostname=? addr=? terminal=? res=success'
;1;39mCreate swap on /dev/zram0.
         Activating swap Compressed swap on /dev/zram0...
[   48.069415] Adding 491516k swap on /dev/zram0.  Priority:100 extents:1 across:491516k SSFS
[  OK  ] Activated swap Compressed swap on /dev/zram0.
[  OK  ] Reached target Swap.
         Mounting Temporary Directory (/tmp)...
[   48.346201] PTP clock support registered
[  OK  ] Mounted Temporary Directory (/tmp).
[*     ] A start job is running for Wait for…vice Initialization (9s / 3min 1s)
[**    ] A start job is running for Wait for…vice Initialization (9s / 3min 1s)
[   51.301863] sunxi_cedrus: module is from the staging directory, the quality is unknown, you have been warned.
[***   ] A start job is running for Wait for…ice Initialization (10s / 3min 1s)
[   51.613197] libphy: Fixed MDIO Bus: probed
[ ***  ] A start job is running for Wait for…ice Initialization (10s / 3min 1s)
[  *** ] A start job is running for Wait for…ice Initialization (11s / 3min 1s)
[   ***] A start job is running for Wait for…ice Initialization (11s / 3min 1s)
[    **] A start job is running for Wait for…ice Initialization (12s / 3min 1s)
[     *] A start job is running for Wait for…ice Initialization (12s / 3min 1s)
[    **] A start job is running for Wait for…ice Initialization (13s / 3min 1s)
[   ***] A start job is running for Wait for…ice Initialization (13s / 3min 1s)
[  *** ] A start job is running for Wait for…ice Initialization (14s / 3min 1s)
[ ***  ] A start job is running for Wait for…ice Initialization (14s / 3min 1s)
[   56.410966] dwmac-sun8i 4500000.ethernet: IRQ eth_wake_irq not found
[   56.417650] dwmac-sun8i 4500000.ethernet: IRQ eth_lpi not found
[   56.435360] dwmac-sun8i 4500000.ethernet: PTP uses main clock
[   56.450478] dwmac-sun8i 4500000.ethernet: Current syscon value is not the default 50006 (expect 0)
[   56.463180] dwmac-sun8i 4500000.ethernet: No HW DMA feature register supported
[   56.474446] dwmac-sun8i 4500000.ethernet: RX Checksum Offload Engine supported
[   56.485000] dwmac-sun8i 4500000.ethernet: COE Type 2
[   56.493518] dwmac-sun8i 4500000.ethernet: TX Checksum insertion supported
[   56.503629] dwmac-sun8i 4500000.ethernet: Normal descriptors
[*  56.513771] dwmac-sun8i 4500000.ethernet: Chain mode enabled
[0;1;31m**   ] A start job is run[   56.523758] dwmac-sun8i 4500000.ethernet: device MAC address 16:46:fd:c0:ed:0a
ning for Wait for…ice Initialization (15s / 3min 1s)
[   56.537494] libphy: stmmac: probed
[**    ] A start job is running for Wait for…ice Initialization (15s / 3min 1s)
[*     ] A start job is running for Wait for…ice Initialization (16s / 3min 1s)
[  [   57.386685] audit: type=1130 audit(1607040049.880:92): pid=1 uid=0 auid=4294967295 ses=4294967295 msg='unit=systemd-udev-settle comm="systemd" exe="/usr/lib/systemd/systemd" hostname=? addr=? terminal=? res=success'
OK  ] Finished Wait for udev To Complete Device Initialization.
[  OK  ] Reached target Local File Systems (Pre).
         Mounting /boot...
         Mounting /home/buildbot-worker/linux-riscv64/tmpfs...
[   57.521101] EXT4-fs (mmcblk0p3): mounted filesystem with ordered data mode. Opts: (null). Quota mode: none.
[   57.540820] ext4 filesystem being mounted at /boot supports timestamps until 2038 (0x7fffffff)
[  OK  ] Mounted /home/buildbot-worker/linux-riscv64/tmpfs.
[  OK  ] Mounted /boot.
[  OK  ] Reached target Local File Systems.
         Starting Restore /run/initramfs on shutdown...
         Starting Tell Plymouth To Write Out Runtime Data...
         Starting Create Volatile Files and Directories...
[  OK  ] Finished    57.727270] audit: type=1130 audit(1607040050.220:93): pid=1 uid=0 auid=4294967295 ses=4294967295 msg='unit=dracut-shutdown comm="systemd" exe="/usr/lib/systemd/systemd" hostname=? addr=? terminal=? res=success'
;1;39mRestore /run/initramfs on shutdown.
[  OK  ] Finished Tell Plymouth To Write Out Runtime Data.
[   57.786004] audit: type=1130 audit(1607040050.264:94): pid=1 uid=0 auid=4294967295 ses=4294967295 msg='unit=plymouth-read-write comm="systemd" exe="/usr/lib/systemd/systemd" hostname=? addr=? terminal=? res=success'
[  OK     58.160005] audit: type=1130 audit(1607040050.652:95): pid=1 uid=0 auid=4294967295 ses=4294967295 msg='unit=systemd-tmpfiles-setup comm="systemd" exe="/usr/lib/systemd/systemd" hostname=? addr=? terminal=? res=success'
0m] Finished Create Volatile Files and Directories.
         Mounting RPC Pipe File System...
         Starting Security Auditing Service...
[  OK  ] Mounted RPC Pipe File System.
[  OK  ] Reached target rpc_pipefs.target.
[   58.431060] audit: type=1305 audit(1607040050.924:96): op=set audit_enabled=1 old=1 auid=4294967295 ses=4294967295 res=1
[   58.445986] audit: type=1300 audit(1607040050.924:96): arch=c00000f3 syscall=206 success=yes exit=60 a0=3 a1=3fec4cdab0 a2=3c a3=0 items=0 ppid=368 pid=369 auid=4294967295 uid=0 gid=0 euid=0 suid=0 fsuid=0 egid=0 sgid=0 fsgid=0 tty=(none) ses=4294967295 comm="auditd" exe="/usr/sbin/auditd" key=(null)
[   58.474991] audit: type=1327 audit(1607040050.924:96): proctitle="/sbin/auditd"
[   58.497898] audit: type=1305 audit(1607040050.936:97): op=set audit_pid=369 old=0 auid=4294967295 ses=4294967295 res=1
[   58.514908] audit: type=1300 audit(1607040050.936:97): arch=c00000f3 syscall=206 success=yes exit=60 a0=3 a1=3fec4cb750 a2=3c a3=0 items=0 ppid=368 pid=369 auid=4294967295 uid=0 gid=0 euid=0 suid=0 fsuid=0 egid=0 sgid=0 fsgid=0 tty=(none) ses=4294967295 comm="auditd" exe="/usr/sbin/auditd" key=(null)
[   58.558200] audit: type=1327 audit(1607040050.936:97): proctitle="/sbin/auditd"
[  OK  ] Started Security Auditing Service.
         Starting Update UTMP about System Boot/Shutdown...
[  OK  ] Finished Update UTMP about System Boot/Shutdown.
[  OK  ] Reached target System Initialization.
[  OK  ] Started dnf makecache --timer.
[  OK  ] Started Discard unused blocks once a week.
[  OK  ] Started Run system activit…ounting tool every 10 minutes.
[  OK  ] Started Generate summary o…esterday's process accounting.
[  OK  ] Started Daily Cleanup of Temporary Directories.
[  OK  ] Started daily update of the root trust anchor for DNSSEC.
[  OK  ] Reached target Timers.
[  OK  ] Listening on Avahi mDNS/DNS-SD Stack Activation Socket.
[  OK  ] Listening on D-Bus System Message Bus Socket.
[  OK  ] Listening on SSSD Kerberos…ache Manager responder socket.
[  OK  ] Reached target Sockets.
[  OK  ] Reached target Basic System.
[  OK  ] Started Manage Sound Card State (restore and store).
[  OK  ] Reached target Sound Card.
         Starting Avahi mDNS/DNS-SD Stack...
         Starting Builds and instal…kernel modules through DKMS...
         Starting firewalld - dynamic firewall daemon...
         Starting GSSAPI Proxy Daemon...
         Starting LSB: Init script for live image....
         Starting RealtimeKit Scheduling Policy Service...
[  OK  ] Reached target sshd-keygen.target.
         Starting System Security Services Daemon...
         Starting Resets System Activity Logs...
         Starting Home Area Manager...
         Starting Disk Manager...
         Starting Daemon for power management...
[  OK  ] Finished Resets System Activity Logs.
         Starting D-Bus System Message Bus...
[  OK  ] Started GSSAPI Proxy Daemon.
[  OK  ] Reached target NFS client services.
[  OK  ] Reached target Remote File Systems (Pre).
[  OK  ] Reached target Remote File Systems.
[  OK  ] Started D-Bus System Message Bus.
[  OK  ] Started RealtimeKit Scheduling Policy Service.
[  OK  ] Started Avahi mDNS/DNS-SD Stack.
[  OK  ] Started Home Area Manager.
         Starting Load Kernel Module drm...
[  OK  ] Finished Load Kernel Module drm.
         Starting Authorization Manager...
[  OK  ] Started LSB: Init script for live image..
         Starting NTP client/server...
[  OK  ] Finished Builds and instal…w kernel modules through DKMS.
[  OK  ] Started NTP client/server.
[  OK  ] Started Authorization Manager.
[**    ] (2 of 4) A start job is running for… power management (36s / 1min 56s)
[  OK  ] Started Disk Manager.
[***   ] (3 of 3) A start job is running for…y Services Daemon (38s / 1min 56s)
[  OK  ] Started System Security Services Daemon.
[  OK  ] Reached target User and Group Name Lookups.
         Starting Accounts Service...
         Starting User Login Management...
[  OK  ] Started Accounts Service.
[  OK  ] Started User Login Management.
[  OK  ] Started Daemon for power management.
[ ***  ] A start job is running for firewall…c firewall daemon (43s / 1min 56s)
[  *** ] A start job is running for firewall…c firewall daemon (44s / 1min 56s)
[   ***] A start job is running for firewall…c firewall daemon (44s / 1min 56s)
[    **] A start job is running for firewall…c firewall daemon (45s / 1min 56s)
[     *] A start job is running for firewall…c firewall daemon (45s / 1min 56s)
[    **] A start job is running for firewall…c firewall daemon (46s / 1min 56s)
[  OK  ] Started firewalld - dynamic firewall daemon.
[  OK  ] Reached target Network (Pre).
         Starting Network Manager...
[  OK  ] Started Network Manager.
[  OK  ] Reached target Network.
         Starting Network Manager Wait Online...
         Starting OpenSSH server daemon...
         Starting Permit User Sessions...
         Starting Hostname Service...
[  OK  ] Finished Permit User Sessions.
[  OK  ] Started Command Scheduler.
         Starting Hold until boot process finishes up...
         Starting Terminate Plymouth Boot Screen...
[  OK  ] Started OpenSSH server daemon.
[   84.648749] dwmac-sun8i 4500000.ethernet eth0: PHY [stmmac-0:01] driver [RTL8211F Gigabit Ethernet] (irq=POLL)
[   84.697119] dwmac-sun8i 4500000.ethernet eth0: Register MEM_TYPE_PAGE_POOL RxQ-0
[   84.771449] dwmac-sun8i 4500000.ethernet eth0: No Safety Features support found
[   84.832065] dwmac-sun8i 4500000.ethernet eth0: No MAC Management Counters available
[   84.884665] dwmac-sun8i 4500000.ethernet eth0: PTP not supported by HW
[   84.980779] dwmac-sun8i 4500000.ethernet eth0: configuring for phy/rgmii-id link mode
[   88.130589] dwmac-sun8i 4500000.ethernet eth0: Link is Up - 1Gbps/Full - flow control rx/tx
[   88.160738] IPv6: ADDRCONF(NETDEV_CHANGE): eth0: link becomes ready

Welcome to the Fedora/RISC-V disk image
https://fedoraproject.org/wiki/Architectures/RISC-V

Build date: Tue Nov 16 19:18:13 UTC 2021

Kernel 5.16.0-rc2+ on an riscv64 (ttyS0)

The root password is 'fedora_rocks!'.
root password logins are disabled in SSH starting Fedora 31.
User 'riscv' with password 'fedora_rocks!' in 'wheel' group is provided.

To install new packages use 'dnf install ...'

To upgrade disk image use 'dnf upgrade --best'

If DNS isn’t working, try editing ‘/etc/yum.repos.d/fedora-riscv.repo’.

For updates and latest information read:
https://fedoraproject.org/wiki/Architectures/RISC-V

Fedora/RISC-V
-------------
Koji:               http://fedora.riscv.rocks/koji/
SCM:                http://fedora.riscv.rocks:3000/
Distribution rep.:  http://fedora.riscv.rocks/repos-dist/
Koji internal rep.: http://fedora.riscv.rocks/repos/
linux-riscv64 login: 
